Social Psychology Lab Handbook - Lab 3: Data cleaning
…
Getting data into R

Getting data into R often involves reading in a .csv (comma-separated values) spreadsheet file that you downloaded to your computer. Indeed, you could download the ANES 2016 data file as a .csv from the ANES website and read it into R that way. However, the anesr package contains the data so you don’t need to download it separately. Instead you can make it available by running this line of code:

data(timeseries_2016)

When you execute the code you won’t see any output, but you should see the name timeseries_2016 appear in your Environment pane. That is now an object in R called a data.frame. You can think of it as a spreadsheet like you’re familiar with from Excel or Google Sheets; a set of columns, one for each variable in the dataset, and a row for each participant’s answers.

Typing the name of the data.frame and running that line of code will show the first few columns and rows.

timeseries_2016

# A tibble: 4,270 × 1,842
   version       V160001 V160001_orig V160101 V160101f V160101w V160102 V160102f
   <chr>           <dbl>        <dbl>   <dbl>    <dbl>    <dbl>   <dbl>    <dbl>
 1 ANES2016Time…       1       300001   0.827    0.888        0   0.842    0.927
 2 ANES2016Time…       2       300002   1.08     1.16         0   1.01     1.08 
 3 ANES2016Time…       3       300003   0.388    0.416        0   0.367    0.398
 4 ANES2016Time…       4       300004   0.360    0.385        0   0.366    0.418
 5 ANES2016Time…       5       300006   0.647    0.693        0   0.646    0.726
 6 ANES2016Time…       6       300007   0.706    0.759        0   0.688    0.725
 7 ANES2016Time…       7       300008   3.96     4.25         0   4.62     4.79 
 8 ANES2016Time…       8       300012   0.962    1.03         0   0.943    1.04 
 9 ANES2016Time…       9       300018   0.976    1.05         0   1.01     1.07 
10 ANES2016Time…      10       300020   0.618    0.664        0   0.600    0.638
# ℹ 4,260 more rows
# ℹ 1,834 more variables: V160102w <dbl>, V160201 <dbl>, V160201f <dbl>,
#   V160201w <dbl>, V160202 <dbl>, V160202f <dbl>, V160202w <dbl>,
#   V160501 <hvn_lbll>, V160502 <hvn_lbll>, V161001 <hvn_lbll>,
#   V161002 <hvn_lbll>, V161003 <hvn_lbll>, V161004 <hvn_lbll>,
#   V161005 <hvn_lbll>, V161006 <hvn_lbll>, V161007 <hvn_lbll>,
#   V161008 <hvn_lbll>, V161009 <hvn_lbll>, V161010a <hvn_lbll>, …
…
There are a lot of ways to do this. The simplest would be to make a note of the variable IDs from the codebook and use the select() function.1 This allows us to simply type in variable names separated by commas.

For this example I’ll look at the correlation between extraversion and the Democratic party feeling thermometer. Extraversion has two TIPI items; their IDs (from the codebook) are V162333 and V162338. The ID for the Democratic Party feeling thermometer is V161095. Since I’ll probably forget which ID is which, I’ll give the columns more meaningful names as I select them.

my_data <- timeseries_2016 |> 
  select(extraversion1 = "V162333", 
         extraversion2 = "V162338",
         feeling_thermometer = "V161095")

Let’s see what this new data.frame looks like:

my_data

# A tibble: 4,270 × 3
   extraversion1 extraversion2 feeling_thermometer
   <hvn_lbll>    <hvn_lbll>    <hvn_lbll>         
 1 6             5              0                 
 2 6             6             15                 
 3 6             2             50                 
 4 6             4             30                 
 5 5             7             70                 
 6 5             6             15                 
 7 5             1             85                 
 8 6             3              0                 
 9 7             1             15                 
10 5             5             50                 
# ℹ 4,260 more rows
…
Notice, however, that for each of the 5 traits, one question is positively worded and one is negatively worded. For extraversion, item V162333 (which I renamed extraversion1) is “extraverted, enthusiastic”, while item V162338 (renamed extraversion2) is “reserved, quiet”. The second one needs to be reverse-coded, so that higher scores on both items indicate greater extraversion. Since answers can range from 1 to 7, an easy way to recode the scores is to subtract the participant’s response from 8; 1 becomes 7, 2 becomes 6, etc.

my_data_complete <- my_data_complete |>
    mutate(extraversion2 = 8 - extraversion2)

Now we can go ahead and compute the average, using mutate() to create a new column (named extraversion_mean) consisting of the rowMeans() (i.e. an average for each row) across() the specified columns (those for which the column name contains("extraversion").

my_data_complete <- my_data_complete |>
    mutate(extraversion_mean = rowMeans(across(contains("extraversion"))))

Let’s see how it looks.

my_data_complete

# A tibble: 3,540 × 4
   extraversion1 extraversion2 feeling_thermometer extraversion_mean
   <hvn_lbll>    <hvn_lbll>    <hvn_lbll>                      <dbl>
 1 6             3              0                                4.5
 2 6             2             15                                4  
 3 6             6             50                                6  
 4 6             4             30                                5  
 5 5             1             70                                3  
 6 5             2             15                                3.5
 7 5             7             85                                6  
 8 6             5              0                                5.5
 9 7             7             15                                7  
10 5             3             50                                4  
# ℹ 3,530 more rows
…
